{
    "code": "200",
    "data": {
        "pagination": {
            "page": 1,
            "size": 10,
            "totalPage": 4,
            "total": 31,
            "lastPage": false
        },
        "result": [
            {
                "id": 4256758,
                "listPicUrl": "https://yanxuan-item.nosdn.127.net/d884b2102d1d24bcd8c1a2a9afb6ca77.jpg",
                "primaryPicUrl": "https://yanxuan-item.nosdn.127.net/e5bd7fac108d57f962c90cb6e5a90878.png",
                "scenePicUrl": "https://yanxuan-item.nosdn.127.net/3f9d746325c85c83927a4a6cf935fc42.jpg",
                "showPicUrl": "https://yanxuan-item.nosdn.127.net/e5bd7fac108d57f962c90cb6e5a90878.png",
                "name": "刻凡多味紫薯花生坚果炒货花生米休闲零食",
                "retailPrice": 6.9,
                "unitPrice": null,
                "simpleDesc": "口感酥脆 果仁饱满 外酥里脆  色泽金黄 ",
                "sellVolume": 5952,
                "tagId": 0,
                "tagName": null,
                "newItemFlag": true,
                "status": 2,
                "rcmdVer": null,
                "pieceNum": 0,
                "pieceUnitDesc": "件",
                "colorNum": 0,
                "productPlace": "",
                "primarySkuPreSellPrice": 0,
                "primarySkuPreSellStatus": 0,
                "limitedFlag": 204,
                "promTag": null,
                "itemTagList": [],
                "recommendDesc": "口感酥脆 果仁饱满 外酥里脆  色泽金黄 ",
                "counterPrice": 19.9,
                "extra": {
                    "modelType": 3,
                    "resource": null,
                    "recommend": null,
                    "adminResource": null,
                    "operationResource": null,
                    "searchExtraData": null,
                    "alg_personalized": null,
                    "rcmdVer": null,
                    "type": null,
                    "id": null,
                    "module": null,
                    "scene": null,
                    "version": null,
                    "pname": null,
                    "crmType": 0,
                    "keyword": null,
                    "opOrderId": null,
                    "dialogType": null,
                    "appId": null,
                    "collectionId": null,
                    "childCollectionId": null,
                    "abtest_dis": null
                },
                "featuredSeries": null,
                "comment": null,
                "configFlag": null,
                "couponAvaliable": null,
                "skuList": null,
                "skuMap": null,
                "skuSpecList": null,
                "goodCmtRate": null,
                "hotSaleListBottomInfo": null,
                "itemHeat": null,
                "promLogo": null,
                "listPromBanner": null,
                "promDesc": null,
                "displaySkuId": 302493477,
                "primaryFlag": true,
                "discountTag": null,
                "customShortDesc": null,
                "customLongDesc": null,
                "goodCmtCount": 0,
                "itemIndex": null,
                "discountFlag": false,
                "cutFlag": false
            },
            {
                "id": 4257284,
                "listPicUrl": "https://yanxuan-item.nosdn.127.net/4f123f7c6981710e9d1cddad0e900702.jpg",
                "primaryPicUrl": "https://yanxuan-item.nosdn.127.net/e84c912f306ab1c53be730f7ab7b02f8.png",
                "scenePicUrl": "https://yanxuan-item.nosdn.127.net/fee466d5d7a25a0a10ff1798c3d70032.jpg",
                "showPicUrl": "https://yanxuan-item.nosdn.127.net/e84c912f306ab1c53be730f7ab7b02f8.png",
                "name": "【买一赠一】双层纱棉花夏被新疆空调夏凉被",
                "retailPrice": 99,
                "unitPrice": null,
                "simpleDesc": "亲肤细腻柔软 吸湿排汗透气",
                "sellVolume": 44967,
                "tagId": 0,
                "tagName": null,
                "newItemFlag": true,
                "status": 2,
                "rcmdVer": null,
                "pieceNum": 0,
                "pieceUnitDesc": "件",
                "colorNum": 0,
                "productPlace": "",
                "primarySkuPreSellPrice": 0,
                "primarySkuPreSellStatus": 0,
                "limitedFlag": 204,
                "promTag": null,
                "itemTagList": [],
                "recommendDesc": "亲肤细腻柔软 吸湿排汗透气",
                "counterPrice": 399,
                "extra": {
                    "modelType": 3,
                    "resource": null,
                    "recommend": null,
                    "adminResource": null,
                    "operationResource": null,
                    "searchExtraData": null,
                    "alg_personalized": null,
                    "rcmdVer": null,
                    "type": null,
                    "id": null,
                    "module": null,
                    "scene": null,
                    "version": null,
                    "pname": null,
                    "crmType": 0,
                    "keyword": null,
                    "opOrderId": null,
                    "dialogType": null,
                    "appId": null,
                    "collectionId": null,
                    "childCollectionId": null,
                    "abtest_dis": null
                },
                "featuredSeries": null,
                "comment": null,
                "configFlag": null,
                "couponAvaliable": null,
                "skuList": null,
                "skuMap": null,
                "skuSpecList": null,
                "goodCmtRate": null,
                "hotSaleListBottomInfo": null,
                "itemHeat": null,
                "promLogo": null,
                "listPromBanner": null,
                "promDesc": null,
                "displaySkuId": 302494294,
                "primaryFlag": true,
                "discountTag": null,
                "customShortDesc": null,
                "customLongDesc": null,
                "goodCmtCount": 0,
                "itemIndex": null,
                "discountFlag": false,
                "cutFlag": false
            },
            {
                "id": 4257118,
                "listPicUrl": "https://yanxuan-item.nosdn.127.net/e90a8ae15da60e4071b73769f6d62d8c.jpg",
                "primaryPicUrl": "https://yanxuan-item.nosdn.127.net/ea3be1b23bedf5b8d33d854addbca425.png",
                "scenePicUrl": "https://yanxuan-item.nosdn.127.net/8d09158d30eb9dc1523e3bf9be6b7331.jpg",
                "showPicUrl": "https://yanxuan-item.nosdn.127.net/ea3be1b23bedf5b8d33d854addbca425.png",
                "name": "新疆小红杏香甜多汁彩箱3斤装",
                "retailPrice": 76,
                "unitPrice": null,
                "simpleDesc": "核心产区阿克苏四团 / 五团，天山托木尔峰脚下，年均 3000 + 小时超长日照，盛夏限定高端杏果",
                "sellVolume": 1969,
                "tagId": 0,
                "tagName": null,
                "newItemFlag": true,
                "status": 2,
                "rcmdVer": null,
                "pieceNum": 0,
                "pieceUnitDesc": "件",
                "colorNum": 0,
                "productPlace": "",
                "primarySkuPreSellPrice": 0,
                "primarySkuPreSellStatus": 0,
                "limitedFlag": 0,
                "promTag": null,
                "itemTagList": [],
                "recommendDesc": "核心产区阿克苏四团 / 五团，天山托木尔峰脚下，年均 3000 + 小时超长日照，盛夏限定高端杏果",
                "counterPrice": 99,
                "extra": {
                    "modelType": 3,
                    "resource": null,
                    "recommend": null,
                    "adminResource": null,
                    "operationResource": null,
                    "searchExtraData": null,
                    "alg_personalized": null,
                    "rcmdVer": null,
                    "type": null,
                    "id": null,
                    "module": null,
                    "scene": null,
                    "version": null,
                    "pname": null,
                    "crmType": 0,
                    "keyword": null,
                    "opOrderId": null,
                    "dialogType": null,
                    "appId": null,
                    "collectionId": null,
                    "childCollectionId": null,
                    "abtest_dis": null
                },
                "featuredSeries": null,
                "comment": null,
                "configFlag": null,
                "couponAvaliable": null,
                "skuList": null,
                "skuMap": null,
                "skuSpecList": null,
                "goodCmtRate": null,
                "hotSaleListBottomInfo": null,
                "itemHeat": null,
                "promLogo": null,
                "listPromBanner": null,
                "promDesc": null,
                "displaySkuId": 302492660,
                "primaryFlag": true,
                "discountTag": null,
                "customShortDesc": null,
                "customLongDesc": null,
                "goodCmtCount": 0,
                "itemIndex": null,
                "discountFlag": false,
                "cutFlag": false
            },
            {
                "id": 4257035,
                "listPicUrl": "https://yanxuan-item.nosdn.127.net/afcc3731d87167054ebfce3eb4ba99b1.jpg",
                "primaryPicUrl": "https://yanxuan-item.nosdn.127.net/915c75e41abcc36616c76344fc391de9.png",
                "scenePicUrl": "https://yanxuan-item.nosdn.127.net/e4fe0bef502f8a519943922e2e6b3017.jpg",
                "showPicUrl": "https://yanxuan-item.nosdn.127.net/915c75e41abcc36616c76344fc391de9.png",
                "name": "纯甜汉源精选桃花李子新鲜采摘送货上门",
                "retailPrice": 49,
                "unitPrice": null,
                "simpleDesc": "纯甜高山桃花李 自然成熟",
                "sellVolume": 3967,
                "tagId": 0,
                "tagName": null,
                "newItemFlag": true,
                "status": 2,
                "rcmdVer": null,
                "pieceNum": 0,
                "pieceUnitDesc": "件",
                "colorNum": 0,
                "productPlace": "",
                "primarySkuPreSellPrice": 0,
                "primarySkuPreSellStatus": 0,
                "limitedFlag": 0,
                "promTag": null,
                "itemTagList": [],
                "recommendDesc": "纯甜高山桃花李 自然成熟",
                "counterPrice": 69,
                "extra": {
                    "modelType": 3,
                    "resource": null,
                    "recommend": null,
                    "adminResource": null,
                    "operationResource": null,
                    "searchExtraData": null,
                    "alg_personalized": null,
                    "rcmdVer": null,
                    "type": null,
                    "id": null,
                    "module": null,
                    "scene": null,
                    "version": null,
                    "pname": null,
                    "crmType": 0,
                    "keyword": null,
                    "opOrderId": null,
                    "dialogType": null,
                    "appId": null,
                    "collectionId": null,
                    "childCollectionId": null,
                    "abtest_dis": null
                },
                "featuredSeries": null,
                "comment": null,
                "configFlag": null,
                "couponAvaliable": null,
                "skuList": null,
                "skuMap": null,
                "skuSpecList": null,
                "goodCmtRate": null,
                "hotSaleListBottomInfo": null,
                "itemHeat": null,
                "promLogo": null,
                "listPromBanner": null,
                "promDesc": null,
                "displaySkuId": 302492662,
                "primaryFlag": true,
                "discountTag": null,
                "customShortDesc": null,
                "customLongDesc": null,
                "goodCmtCount": 0,
                "itemIndex": null,
                "discountFlag": false,
                "cutFlag": false
            },
            {
                "id": 4256973,
                "listPicUrl": "https://yanxuan-item.nosdn.127.net/aa7d9d053fb2950daab78abaf4c01564.jpg",
                "primaryPicUrl": "https://yanxuan-item.nosdn.127.net/72140fa36ba8aee492a448cde89a0d9a.png",
                "scenePicUrl": "https://yanxuan-item.nosdn.127.net/8a01aa3a90e307e7c6340e3548a4a253.jpg",
                "showPicUrl": "https://yanxuan-item.nosdn.127.net/72140fa36ba8aee492a448cde89a0d9a.png",
                "name": "万物新生启吉运丨原创藏传天珠玛瑙挂件系列",
                "retailPrice": 49,
                "unitPrice": null,
                "simpleDesc": "甄选珍品老料，原创十余款挂件与珠串。融合藏传图腾与现代设计，男女皆宜，护身纳福，宜戴宜藏。",
                "sellVolume": 39,
                "tagId": 0,
                "tagName": null,
                "newItemFlag": true,
                "status": 2,
                "rcmdVer": null,
                "pieceNum": 0,
                "pieceUnitDesc": "件",
                "colorNum": 0,
                "productPlace": "",
                "primarySkuPreSellPrice": 0,
                "primarySkuPreSellStatus": 0,
                "limitedFlag": 0,
                "promTag": null,
                "itemTagList": [],
                "recommendDesc": "甄选珍品老料，原创十余款挂件与珠串。融合藏传图腾与现代设计，男女皆宜，护身纳福，宜戴宜藏。",
                "counterPrice": 169,
                "extra": {
                    "modelType": 3,
                    "resource": null,
                    "recommend": null,
                    "adminResource": null,
                    "operationResource": null,
                    "searchExtraData": null,
                    "alg_personalized": null,
                    "rcmdVer": null,
                    "type": null,
                    "id": null,
                    "module": null,
                    "scene": null,
                    "version": null,
                    "pname": null,
                    "crmType": 0,
                    "keyword": null,
                    "opOrderId": null,
                    "dialogType": null,
                    "appId": null,
                    "collectionId": null,
                    "childCollectionId": null,
                    "abtest_dis": null
                },
                "featuredSeries": null,
                "comment": null,
                "configFlag": null,
                "couponAvaliable": null,
                "skuList": null,
                "skuMap": null,
                "skuSpecList": null,
                "goodCmtRate": null,
                "hotSaleListBottomInfo": null,
                "itemHeat": null,
                "promLogo": null,
                "listPromBanner": null,
                "promDesc": null,
                "displaySkuId": 302492200,
                "primaryFlag": true,
                "discountTag": null,
                "customShortDesc": null,
                "customLongDesc": null,
                "goodCmtCount": 0,
                "itemIndex": null,
                "discountFlag": false,
                "cutFlag": false
            },
            {
                "id": 4257109,
                "listPicUrl": "https://yanxuan-item.nosdn.127.net/3c2597b0cd8687793ef376179d0f469e.jpg",
                "primaryPicUrl": "https://yanxuan-item.nosdn.127.net/499ba69925111c05688c532bf0ac39c9.png",
                "scenePicUrl": "https://yanxuan-item.nosdn.127.net/d48e8a92ed97bb095ea761c1e23b4f72.jpg",
                "showPicUrl": "https://yanxuan-item.nosdn.127.net/499ba69925111c05688c532bf0ac39c9.png",
                "name": "Pro星选 贝贝南瓜2/3/4.5斤粉糯香甜",
                "retailPrice": 9.9,
                "unitPrice": null,
                "simpleDesc": "贝贝南瓜个头小巧，果皮黑绿带浅绿条纹，果肉金黄，粉糯香甜，有板栗的粉糯和南瓜的甜香。宝宝辅食",
                "sellVolume": 2975,
                "tagId": 0,
                "tagName": null,
                "newItemFlag": true,
                "status": 2,
                "rcmdVer": null,
                "pieceNum": 0,
                "pieceUnitDesc": "件",
                "colorNum": 0,
                "productPlace": "",
                "primarySkuPreSellPrice": 0,
                "primarySkuPreSellStatus": 0,
                "limitedFlag": 204,
                "promTag": null,
                "itemTagList": [],
                "recommendDesc": "贝贝南瓜个头小巧，果皮黑绿带浅绿条纹，果肉金黄，粉糯香甜，有板栗的粉糯和南瓜的甜香。宝宝辅食",
                "counterPrice": 12.9,
                "extra": {
                    "modelType": 3,
                    "resource": null,
                    "recommend": null,
                    "adminResource": null,
                    "operationResource": null,
                    "searchExtraData": null,
                    "alg_personalized": null,
                    "rcmdVer": null,
                    "type": null,
                    "id": null,
                    "module": null,
                    "scene": null,
                    "version": null,
                    "pname": null,
                    "crmType": 0,
                    "keyword": null,
                    "opOrderId": null,
                    "dialogType": null,
                    "appId": null,
                    "collectionId": null,
                    "childCollectionId": null,
                    "abtest_dis": null
                },
                "featuredSeries": null,
                "comment": null,
                "configFlag": null,
                "couponAvaliable": null,
                "skuList": null,
                "skuMap": null,
                "skuSpecList": null,
                "goodCmtRate": null,
                "hotSaleListBottomInfo": null,
                "itemHeat": null,
                "promLogo": null,
                "listPromBanner": null,
                "promDesc": null,
                "displaySkuId": 302493367,
                "primaryFlag": true,
                "discountTag": null,
                "customShortDesc": null,
                "customLongDesc": null,
                "goodCmtCount": 0,
                "itemIndex": null,
                "discountFlag": false,
                "cutFlag": false
            },
            {
                "id": 4243546,
                "listPicUrl": "https://yanxuan-item.nosdn.127.net/4c8aae7375ad356018243548014461a2.png",
                "primaryPicUrl": "https://yanxuan-item.nosdn.127.net/31c58633dc45b7c1ce3263c5f9e37b99.png",
                "scenePicUrl": "https://yanxuan-item.nosdn.127.net/8a526f91a305d25b5162e7a23a2253e3.png",
                "showPicUrl": "https://yanxuan-item.nosdn.127.net/31c58633dc45b7c1ce3263c5f9e37b99.png",
                "name": "26年新款！深睡云感 网易严选B01慢回弹舒压记忆棉枕",
                "retailPrice": 89,
                "unitPrice": null,
                "simpleDesc": "慢弹释压，沉浸寻梦之旅",
                "sellVolume": 1116,
                "tagId": 0,
                "tagName": null,
                "newItemFlag": true,
                "status": 2,
                "rcmdVer": null,
                "pieceNum": 0,
                "pieceUnitDesc": "件",
                "colorNum": 0,
                "productPlace": "",
                "primarySkuPreSellPrice": 0,
                "primarySkuPreSellStatus": 0,
                "limitedFlag": 204,
                "promTag": null,
                "itemTagList": [],
                "recommendDesc": "慢弹释压，沉浸寻梦之旅",
                "counterPrice": 139,
                "extra": {
                    "modelType": 3,
                    "resource": null,
                    "recommend": null,
                    "adminResource": null,
                    "operationResource": null,
                    "searchExtraData": null,
                    "alg_personalized": null,
                    "rcmdVer": null,
                    "type": null,
                    "id": null,
                    "module": null,
                    "scene": null,
                    "version": null,
                    "pname": null,
                    "crmType": 0,
                    "keyword": null,
                    "opOrderId": null,
                    "dialogType": null,
                    "appId": null,
                    "collectionId": null,
                    "childCollectionId": null,
                    "abtest_dis": null
                },
                "featuredSeries": null,
                "comment": null,
                "configFlag": null,
                "couponAvaliable": null,
                "skuList": null,
                "skuMap": null,
                "skuSpecList": null,
                "goodCmtRate": null,
                "hotSaleListBottomInfo": null,
                "itemHeat": null,
                "promLogo": null,
                "listPromBanner": null,
                "promDesc": null,
                "displaySkuId": 302330023,
                "primaryFlag": true,
                "discountTag": null,
                "customShortDesc": null,
                "customLongDesc": null,
                "goodCmtCount": 0,
                "itemIndex": null,
                "discountFlag": false,
                "cutFlag": false
            },
            {
                "id": 4258084,
                "listPicUrl": "https://yanxuan-item.nosdn.127.net/cf0d9b74bd176ec8ceb5df8bfff2b152.png",
                "primaryPicUrl": "https://yanxuan-item.nosdn.127.net/a37bcd5e5557c231355adee476d01d0f.png",
                "scenePicUrl": "https://yanxuan-item.nosdn.127.net/6e3d6a37ee4060bf604e6e73d971aa98.png",
                "showPicUrl": null,
                "name": "【网易严选】 四电极智能体脂秤",
                "retailPrice": 199,
                "unitPrice": null,
                "simpleDesc": "只需1次上秤，带来19项数据的智能体脂秤",
                "sellVolume": 65,
                "tagId": 0,
                "tagName": null,
                "newItemFlag": true,
                "status": 2,
                "rcmdVer": null,
                "pieceNum": 0,
                "pieceUnitDesc": "件",
                "colorNum": 0,
                "productPlace": "",
                "primarySkuPreSellPrice": 0,
                "primarySkuPreSellStatus": 0,
                "limitedFlag": 0,
                "promTag": null,
                "itemTagList": [],
                "recommendDesc": null,
                "counterPrice": 199,
                "extra": null,
                "featuredSeries": null,
                "comment": null,
                "configFlag": null,
                "couponAvaliable": null,
                "skuList": null,
                "skuMap": null,
                "skuSpecList": null,
                "goodCmtRate": null,
                "hotSaleListBottomInfo": null,
                "itemHeat": null,
                "promLogo": null,
                "listPromBanner": null,
                "promDesc": null,
                "displaySkuId": 302503019,
                "primaryFlag": false,
                "discountTag": null,
                "customShortDesc": null,
                "customLongDesc": null,
                "goodCmtCount": 0,
                "itemIndex": null,
                "discountFlag": false,
                "cutFlag": false
            },
            {
                "id": 4257764,
                "listPicUrl": "https://yanxuan-item.nosdn.127.net/c2876bbe9f5ed523ea53dd9460cb35e1.jpg",
                "primaryPicUrl": "https://yanxuan-item.nosdn.127.net/5a258fb706a21be9f36b73fc41f67cad.png",
                "scenePicUrl": "https://yanxuan-item.nosdn.127.net/2bcd2ce0f6b96dd63ce9962936e61503.jpg",
                "showPicUrl": null,
                "name": "一鹿相伴茶水分离办公杯礼盒装",
                "retailPrice": 129,
                "unitPrice": null,
                "simpleDesc": "本地天然瓷土+原矿釉，无铅镉、环保无毒  • 瓷质致密坚硬，防刮耐磨、不易开裂  • 耐高温、可微波",
                "sellVolume": 500,
                "tagId": 0,
                "tagName": null,
                "newItemFlag": true,
                "status": 2,
                "rcmdVer": null,
                "pieceNum": 0,
                "pieceUnitDesc": "件",
                "colorNum": 0,
                "productPlace": "",
                "primarySkuPreSellPrice": 0,
                "primarySkuPreSellStatus": 0,
                "limitedFlag": 204,
                "promTag": null,
                "itemTagList": [],
                "recommendDesc": null,
                "counterPrice": 152,
                "extra": null,
                "featuredSeries": null,
                "comment": null,
                "configFlag": null,
                "couponAvaliable": null,
                "skuList": null,
                "skuMap": null,
                "skuSpecList": null,
                "goodCmtRate": null,
                "hotSaleListBottomInfo": null,
                "itemHeat": null,
                "promLogo": null,
                "listPromBanner": null,
                "promDesc": null,
                "displaySkuId": 302499933,
                "primaryFlag": false,
                "discountTag": null,
                "customShortDesc": null,
                "customLongDesc": null,
                "goodCmtCount": 0,
                "itemIndex": null,
                "discountFlag": false,
                "cutFlag": false
            },
            {
                "id": 4257798,
                "listPicUrl": "https://yanxuan-item.nosdn.127.net/630c7980eb90fa085542ce7b512f8d1f.jpg",
                "primaryPicUrl": "https://yanxuan-item.nosdn.127.net/7d12c1b862a2cee022d445c800166947.png",
                "scenePicUrl": "https://yanxuan-item.nosdn.127.net/3f44c7c33a9a886afed1b9af4791f655.jpg",
                "showPicUrl": null,
                "name": "茶叶罐大号创意中式防潮密封金属陶瓷收纳罐",
                "retailPrice": 131,
                "unitPrice": null,
                "simpleDesc": "本地天然瓷土+原矿釉，无铅镉、环保无毒  • 瓷质致密坚硬，防刮耐磨、不易开裂  • 耐高温、可微波",
                "sellVolume": 500,
                "tagId": 0,
                "tagName": null,
                "newItemFlag": true,
                "status": 2,
                "rcmdVer": null,
                "pieceNum": 0,
                "pieceUnitDesc": "件",
                "colorNum": 0,
                "productPlace": "",
                "primarySkuPreSellPrice": 0,
                "primarySkuPreSellStatus": 0,
                "limitedFlag": 204,
                "promTag": null,
                "itemTagList": [],
                "recommendDesc": null,
                "counterPrice": 155,
                "extra": null,
                "featuredSeries": null,
                "comment": null,
                "configFlag": null,
                "couponAvaliable": null,
                "skuList": null,
                "skuMap": null,
                "skuSpecList": null,
                "goodCmtRate": null,
                "hotSaleListBottomInfo": null,
                "itemHeat": null,
                "promLogo": null,
                "listPromBanner": null,
                "promDesc": null,
                "displaySkuId": 302499932,
                "primaryFlag": false,
                "discountTag": null,
                "customShortDesc": null,
                "customLongDesc": null,
                "goodCmtCount": 0,
                "itemIndex": null,
                "discountFlag": false,
                "cutFlag": false
            }
        ]
    }
}